Módulo 3: Manipulación de Bases de Datos – Jose Miguel Leon P.
…
country_colors
Gapminder color schemes

gapminder
Gapminder data

gapminder_unfiltered
Gapminder data, unfiltered

Posteriormente podremos cargar la base de datos, por medio de la misma función:

data("gapminder")
force(gapminder)

# A tibble: 1,704 × 6
   country     continent  year lifeExp      pop gdpPercap
   <fct>       <fct>     <int>   <dbl>    <int>     <dbl>
 1 Afghanistan Asia       1952    28.8  8425333      779.
 2 Afghanistan Asia       1957    30.3  9240934      821.
 3 Afghanistan Asia       1962    32.0 10267083      853.
 4 Afghanistan Asia       1967    34.0 11537966      836.
 5 Afghanistan Asia       1972    36.1 13079460      740.
 6 Afghanistan Asia       1977    38.4 14880372      786.
 7 Afghanistan Asia       1982    39.9 12881816      978.
 8 Afghanistan Asia       1987    40.8 13867957      852.
 9 Afghanistan Asia       1992    41.7 16317921      649.
10 Afghanistan Asia       1997    41.8 22227415      635.
# ℹ 1,694 more rows
…
La función rename() se utiliza para cambiar de nombre a las columnas, por ejemplo:

library(palmerpenguins)

Warning: package 'palmerpenguins' was built under R version 4.4.3

data(package = 'palmerpenguins')
penguins <- penguins
penguins %>% rename(isla = island)

# A tibble: 344 × 8
   species isla      bill_length_mm bill_depth_mm flipper_length_mm body_mass_g
   <fct>   <fct>              <dbl>         <dbl>             <int>       <int>
 1 Adelie  Torgersen           39.1          18.7               181        3750
 2 Adelie  Torgersen           39.5          17.4               186        3800
 3 Adelie  Torgersen           40.3          18                 195        3250
 4 Adelie  Torgersen           NA            NA                  NA          NA
 5 Adelie  Torgersen           36.7          19.3               193        3450
 6 Adelie  Torgersen           39.3          20.6               190        3650
 7 Adelie  Torgersen           38.9          17.8               181        3625
 8 Adelie  Torgersen           39.2          19.6               195        4675
 9 Adelie  Torgersen           34.1          18.1               193        3475
10 Adelie  Torgersen           42            20.2               190        4250
# ℹ 334 more rows
# ℹ 2 more variables: sex <fct>, year <int>
…
# A tibble: 5 × 8
  species   island bill_length_mm bill_depth_mm flipper_length_mm body_mass_g
  <fct>     <fct>           <dbl>         <dbl>             <int>       <int>
1 Gentoo    Biscoe           59.6          17                 230        6050
2 Chinstrap Dream            58            17.8               181        3700
3 Gentoo    Biscoe           55.9          17                 228        5600
4 Chinstrap Dream            55.8          19.8               207        4000
5 Gentoo    Biscoe           55.1          16                 230        5850
# ℹ 2 more variables: sex <fct>, year <int>

Se puede cambiar la localización de las columnas con la función relocate() y los parámetros .before y .after

penguins %>%  relocate(year, .after = species)

# A tibble: 344 × 8
   species  year island    bill_length_mm bill_depth_mm flipper_length_mm
   <fct>   <int> <fct>              <dbl>         <dbl>             <int>
 1 Adelie   2007 Torgersen           39.1          18.7               181
 2 Adelie   2007 Torgersen           39.5          17.4               186
 3 Adelie   2007 Torgersen           40.3          18                 195
 4 Adelie   2007 Torgersen           NA            NA                  NA
 5 Adelie   2007 Torgersen           36.7          19.3               193
 6 Adelie   2007 Torgersen           39.3          20.6               190
 7 Adelie   2007 Torgersen           38.9          17.8               181
 8 Adelie   2007 Torgersen           39.2          19.6               195
 9 Adelie   2007 Torgersen           34.1          18.1               193
10 Adelie   2007 Torgersen           42            20.2               190
# ℹ 334 more rows
# ℹ 2 more variables: body_mass_g <int>, sex <fct>
…
  Ozone Solar.R Wind Temp Month Day
1    41     190  7.4   67     5   1
2    36     118  8.0   72     5   2
3    12     149 12.6   74     5   3
4    18     313 11.5   62     5   4
5    NA      NA 14.3   56     5   5
6    28      NA 14.9   66     5   6

largo <- airquality %>%
  pivot_longer(c(Ozone, Solar.R, Wind, Temp), 
                 names_to = "variable", values_to = "value")
largo

# A tibble: 612 × 4
   Month   Day variable value
   <int> <int> <chr>    <dbl>
 1     5     1 Ozone     41  
 2     5     1 Solar.R  190  
 3     5     1 Wind       7.4
 4     5     1 Temp      67  
 5     5     2 Ozone     36  
 6     5     2 Solar.R  118  
 7     5     2 Wind       8  
 8     5     2 Temp      72  
 9     5     3 Ozone     12  
10     5     3 Solar.R  149  
# ℹ 602 more rows

ancho <- largo %>%
  pivot_wider(names_from = "variable", 
              values_from = "value")
ancho

# A tibble: 153 × 6
   Month   Day Ozone Solar.R  Wind  Temp
   <int> <int> <dbl>   <dbl> <dbl> <dbl>
 1     5     1    41     190   7.4    67
 2     5     2    36     118   8      72
 3     5     3    12     149  12.6    74
 4     5     4    18     313  11.5    62
 5     5     5    NA      NA  14.3    56
 6     5     6    28      NA  14.9    66
 7     5     7    23     299   8.6    65
 8     5     8    19      99  13.8    59
 9     5     9     8      19  20.1    61
10     5    10    NA     194   8.6    69
# ℹ 143 more rows
…
